{
  "extends": ["@1stg/tslint-config/angular", "@1stg/tslint-config/eslint"],
  "rules": {
    "component-selector": [true, "element", "acl", "kebab-case"],
    "directive-selector": [true, "attribute", "acl", "camelCase"]
  },
  "linterOptions": {
    "exclude": ["node_modules/**", "dist/**"]
  }
}
